Symlinking /home/artem/ws_moveit/devel/lib/pkgconfig/moveit_resources_prbt_pg70_support.pc
Symlinking /home/artem/ws_moveit/devel/share/moveit_resources_prbt_pg70_support/cmake/moveit_resources_prbt_pg70_supportConfig.cmake
Symlinking /home/artem/ws_moveit/devel/share/moveit_resources_prbt_pg70_support/cmake/moveit_resources_prbt_pg70_supportConfig-version.cmake
